%YAML 1.1
%TAG !u! tag:unity3d.com,2011:
--- !u!114 &11400000
MonoBehaviour:
  m_ObjectHideFlags: 0
  m_CorrespondingSourceObject: {fileID: 0}
  m_PrefabInstance: {fileID: 0}
  m_PrefabAsset: {fileID: 0}
  m_GameObject: {fileID: 0}
  m_Enabled: 1
  m_EditorHideFlags: 0
  m_Script: {fileID: -1893448595, guid: a040fb66244a7f54289914d98ea4ef7d, type: 3}
  m_Name: Named_object
  m_EditorClassIdentifier: 
  _data:
    _json: '{"graph":{"variables":{"collection":{"$content":[{"name":"Named_object","value":{"$content":0,"$type":"UnityEngine.Object"},"$version":"A"},{"name":"Current","value":null,"$version":"A"}],"$version":"A"},"$version":"A"},"controlInputDefinitions":[],"controlOutputDefinitions":[],"valueInputDefinitions":[],"valueOutputDefinitions":[],"title":null,"summary":null,"pan":{"x":-75.52162,"y":-725.6464},"zoom":0.9500001,"elements":[{"coroutine":false,"defaultValues":{"target":null},"position":{"x":-635.0,"y":-818.0},"guid":"c48eb4d1-0455-49e3-8367-bd2f21f2de35","$version":"A","$type":"Bolt.OnMouseEnter","$id":"11"},{"chainable":false,"member":{"name":"SetFloat","parameterTypes":["System.String","System.Single"],"targetType":"UnityEngine.Material","targetTypeName":"UnityEngine.Material","$version":"A"},"defaultValues":{"target":null,"%name":{"$content":"_Outline","$type":"System.String"},"%value":{"$content":0.1,"$type":"System.Single"}},"position":{"x":618.0,"y":-814.0},"guid":"2473595f-a961-4cc1-be62-5bd745e93f68","$version":"A","$type":"Bolt.InvokeMember","$id":"13"},{"chainable":false,"member":{"name":"GetComponentInChildren","parameterTypes":["System.Type"],"targetType":"UnityEngine.Component","targetTypeName":"UnityEngine.Component","$version":"A"},"defaultValues":{"target":null,"%t":{"$content":"UnityEngine.Renderer","$type":"System.RuntimeType"}},"position":{"x":144.0,"y":-515.0},"guid":"fae6d8eb-da3a-4f11-874f-891f1795d111","$version":"A","$type":"Bolt.InvokeMember","$id":"16"},{"chainable":false,"member":{"name":"SetFloat","parameterTypes":["System.String","System.Single"],"targetType":"UnityEngine.Material","targetTypeName":"UnityEngine.Material","$version":"A"},"defaultValues":{"target":null,"%name":{"$content":"_Outline","$type":"System.String"},"%value":{"$content":0.0,"$type":"System.Single"}},"position":{"x":598.0,"y":-528.0},"guid":"d2bd64bc-ef82-4c1e-8370-69b06f2256e2","$version":"A","$type":"Bolt.InvokeMember","$id":"19"},{"chainable":false,"member":{"name":"GetComponentInChildren","parameterTypes":["System.Type"],"targetType":"UnityEngine.Component","targetTypeName":"UnityEngine.Component","$version":"A"},"defaultValues":{"target":null,"%t":{"$content":"UnityEngine.UI.Text","$type":"System.RuntimeType"}},"position":{"x":-401.0,"y":-824.0},"guid":"2c35d86b-8f6c-4fff-a321-3c2bf21df4b5","$version":"A","$type":"Bolt.InvokeMember","$id":"22"},{"member":{"name":"material","parameterTypes":null,"targetType":"UnityEngine.Renderer","targetTypeName":"UnityEngine.Renderer","$version":"A"},"defaultValues":{"target":null},"position":{"x":430.0,"y":-469.0},"guid":"1d7a1264-28cb-4add-82ed-796f003c6e5e","$version":"A","$type":"Bolt.GetMember","$id":"25"},{"chainable":false,"member":{"name":"SetFloat","parameterTypes":["System.String","System.Single"],"targetType":"UnityEngine.Material","targetTypeName":"UnityEngine.Material","$version":"A"},"defaultValues":{"target":null,"%name":{"$content":"_Outline","$type":"System.String"},"%value":{"$content":0.1,"$type":"System.Single"}},"position":{"x":958.0,"y":-273.0},"guid":"bbb0043f-8e26-458e-82aa-19025cfaf914","$version":"A","$type":"Bolt.InvokeMember","$id":"28"},{"chainable":false,"member":{"name":"GetComponentInChildren","parameterTypes":["System.Type"],"targetType":"UnityEngine.Component","targetTypeName":"UnityEngine.Component","$version":"A"},"defaultValues":{"target":null,"%t":{"$content":"UnityEngine.Renderer","$type":"System.RuntimeType"}},"position":{"x":127.0,"y":-816.0},"guid":"dfae4e2d-d24f-4606-b7c2-e2ac66b8ab09","$version":"A","$type":"Bolt.InvokeMember","$id":"31"},{"chainable":false,"member":{"name":"GetComponentInChildren","parameterTypes":["System.Type"],"targetType":"UnityEngine.Component","targetTypeName":"UnityEngine.Component","$version":"A"},"defaultValues":{"target":null,"%t":{"$content":"UnityEngine.Renderer","$type":"System.RuntimeType"}},"position":{"x":482.0,"y":-63.0},"guid":"044456b0-987f-49cd-bd0c-c886d77dfa34","$version":"A","$type":"Bolt.InvokeMember","$id":"34"},{"chainable":false,"member":{"name":"SetFloat","parameterTypes":["System.String","System.Single"],"targetType":"UnityEngine.Material","targetTypeName":"UnityEngine.Material","$version":"A"},"defaultValues":{"target":null,"%name":{"$content":"_Outline","$type":"System.String"},"%value":{"$content":0.0,"$type":"System.Single"}},"position":{"x":973.0,"y":-61.0},"guid":"10472428-ab11-4922-af44-4d920b134caa","$version":"A","$type":"Bolt.InvokeMember","$id":"37"},{"member":{"name":"material","parameterTypes":null,"targetType":"UnityEngine.Renderer","targetTypeName":"UnityEngine.Renderer","$version":"A"},"defaultValues":{"target":null},"position":{"x":754.0,"y":-207.0},"guid":"89c93494-feb5-46e3-87ab-72bcc29915ab","$version":"A","$type":"Bolt.GetMember","$id":"40"},{"numeric":false,"defaultValues":{},"position":{"x":-227.0,"y":-133.0},"guid":"042108f8-4b32-4555-983c-0ffd014b1644","$version":"A","$type":"Bolt.Equal","$id":"43"},{"chainable":false,"member":{"name":"GetComponentInChildren","parameterTypes":["System.Type"],"targetType":"UnityEngine.Component","targetTypeName":"UnityEngine.Component","$version":"A"},"defaultValues":{"target":null,"%t":{"$content":"UnityEngine.Renderer","$type":"System.RuntimeType"}},"position":{"x":467.0,"y":-275.0},"guid":"e58f5ba5-5410-4393-858d-3a68a08a1cd9","$version":"A","$type":"Bolt.InvokeMember","$id":"45"},{"member":{"name":"material","parameterTypes":null,"targetType":"UnityEngine.Renderer","targetTypeName":"UnityEngine.Renderer","$version":"A"},"defaultValues":{"target":null},"position":{"x":770.0,"y":5.0},"guid":"bd379c3e-8905-4402-a2d9-c76d0b0de0cd","$version":"A","$type":"Bolt.GetMember","$id":"48"},{"member":{"name":"material","parameterTypes":null,"targetType":"UnityEngine.Renderer","targetTypeName":"UnityEngine.Renderer","$version":"A"},"defaultValues":{"target":null},"position":{"x":415.0,"y":-748.0},"guid":"ff0c9c23-960b-4069-9cf5-41abf84c6d8a","$version":"A","$type":"Bolt.GetMember","$id":"51"},{"chainable":false,"member":{"name":"text","parameterTypes":null,"targetType":"UnityEngine.UI.Text","targetTypeName":"UnityEngine.UI.Text","$version":"A"},"defaultValues":{"target":null,"input":{"$content":"","$type":"System.String"}},"position":{"x":304.0,"y":-55.0},"guid":"de69b952-c43b-412f-b5f4-1a0139c8a20a","$version":"A","$type":"Bolt.SetMember","$id":"54"},{"chainable":false,"member":{"name":"text","parameterTypes":null,"targetType":"UnityEngine.UI.Text","targetTypeName":"UnityEngine.UI.Text","$version":"A"},"defaultValues":{"target":null,"input":{"$content":"","$type":"System.String"}},"position":{"x":-57.0,"y":-824.0},"guid":"2e28d4aa-9d6a-45a0-a9a9-3d1200829852","$version":"A","$type":"Bolt.SetMember","$id":"57"},{"specifyFallback":false,"kind":"Scene","defaultValues":{"name":{"$content":"PickObject","$type":"System.String"}},"position":{"x":-629.0,"y":-163.0},"guid":"8908a948-ef00-46f0-9aae-17198356e5da","$version":"A","$type":"Bolt.GetVariable","$id":"60"},{"member":{"name":"name","parameterTypes":null,"targetType":"UnityEngine.GameObject","targetTypeName":"UnityEngine.GameObject","$version":"A"},"defaultValues":{"target":null},"position":{"x":79.0,"y":-146.0},"guid":"ab0434b6-28c6-448f-ab15-ca68c4e0692d","$version":"A","$type":"Bolt.GetMember","$id":"62"},{"specifyFallback":false,"kind":"Scene","defaultValues":{"name":{"$content":"PickObject","$type":"System.String"}},"position":{"x":-418.0,"y":-131.0},"guid":"8a9f488e-7498-4074-a03a-f29f14043285","$version":"A","$type":"Bolt.GetVariable","$id":"65"},{"defaultValues":{},"position":{"x":-357.0,"y":-263.0},"guid":"d40561c6-2a7d-41dd-8fe9-dd9fdc976580","$version":"A","$type":"Bolt.NullCheck","$id":"67"},{"coroutine":false,"defaultValues":{},"position":{"x":-605.0,"y":-265.0},"guid":"0c83799b-e6e4-417c-9f01-be6b076936e6","$version":"A","$type":"Bolt.Update"},{"chainable":false,"member":{"name":"text","parameterTypes":null,"targetType":"UnityEngine.UI.Text","targetTypeName":"UnityEngine.UI.Text","$version":"A"},"defaultValues":{"target":null,"input":{"$content":"","$type":"System.String"}},"position":{"x":301.0,"y":-267.0},"guid":"6245251e-56fc-4fdb-8210-0970d34c1f43","$version":"A","$type":"Bolt.SetMember","$id":"71"},{"chainable":false,"member":{"name":"GetComponentInChildren","parameterTypes":["System.Type"],"targetType":"UnityEngine.Component","targetTypeName":"UnityEngine.Component","$version":"A"},"defaultValues":{"target":null,"%t":{"$content":"UnityEngine.UI.Text","$type":"System.RuntimeType"}},"position":{"x":-40.0,"y":-55.0},"guid":"8e615dfb-91c4-49a4-ac6d-4d032b9b18ae","$version":"A","$type":"Bolt.InvokeMember","$id":"74"},{"defaultValues":{},"position":{"x":-356.0,"y":-41.0},"guid":"cf1c769b-ff29-4105-969f-c6ab665c891f","$version":"A","$type":"Bolt.Self","$id":"77"},{"chainable":false,"member":{"name":"text","parameterTypes":null,"targetType":"UnityEngine.UI.Text","targetTypeName":"UnityEngine.UI.Text","$version":"A"},"defaultValues":{"target":null,"input":{"$content":"","$type":"System.String"}},"position":{"x":-54.0,"y":-509.0},"guid":"054590a2-fbc5-4634-a958-bcf043eb90bd","$version":"A","$type":"Bolt.SetMember","$id":"79"},{"defaultValues":{},"position":{"x":-159.0,"y":-261.0},"guid":"110398b9-b3c9-4bf1-b704-c06b553fc6cc","$version":"A","$type":"Bolt.Branch","$id":"82"},{"coroutine":false,"defaultValues":{"target":null},"position":{"x":-618.0,"y":-502.0},"guid":"8bd4d033-2fe5-4e91-b81e-dced620da7d3","$version":"A","$type":"Bolt.OnMouseExit","$id":"84"},{"chainable":false,"member":{"name":"GetComponentInChildren","parameterTypes":["System.Type"],"targetType":"UnityEngine.Component","targetTypeName":"UnityEngine.Component","$version":"A"},"defaultValues":{"target":null,"%t":{"$content":"UnityEngine.UI.Text","$type":"System.RuntimeType"}},"position":{"x":-398.0,"y":-509.0},"guid":"a8d8e791-e1de-400c-aa57-d7db860dd790","$version":"A","$type":"Bolt.InvokeMember","$id":"86"},{"chainable":false,"member":{"name":"GetComponentInChildren","parameterTypes":["System.Type"],"targetType":"UnityEngine.Component","targetTypeName":"UnityEngine.Component","$version":"A"},"defaultValues":{"target":null,"%t":{"$content":"UnityEngine.UI.Text","$type":"System.RuntimeType"}},"position":{"x":-5.0,"y":-267.0},"guid":"a1315900-6dd3-44f4-bc3e-08c47c019e48","$version":"A","$type":"Bolt.InvokeMember","$id":"89"},{"member":{"name":"name","parameterTypes":null,"targetType":"UnityEngine.GameObject","targetTypeName":"UnityEngine.GameObject","$version":"A"},"defaultValues":{"target":null},"position":{"x":-317.0,"y":-701.0},"guid":"e1afc6d7-e63d-4a0b-99f5-a90528ace79d","$version":"A","$type":"Bolt.GetMember","$id":"92"},{"sourceUnit":{"$ref":"45"},"sourceKey":"exit","destinationUnit":{"$ref":"28"},"destinationKey":"enter","guid":"c53214b2-263e-427c-91cd-90c91dd779cd","$type":"Bolt.ControlConnection"},{"sourceUnit":{"$ref":"16"},"sourceKey":"exit","destinationUnit":{"$ref":"19"},"destinationKey":"enter","guid":"1f072ddb-32ea-4707-a9a6-6d322f0e0fc6","$type":"Bolt.ControlConnection"},{"sourceUnit":{"$ref":"22"},"sourceKey":"exit","destinationUnit":{"$ref":"57"},"destinationKey":"assign","guid":"24fa2f2a-d491-45fe-9e17-83f984444f0f","$type":"Bolt.ControlConnection"},{"sourceUnit":{"$ref":"79"},"sourceKey":"assigned","destinationUnit":{"$ref":"16"},"destinationKey":"enter","guid":"1c95d9cf-83ff-4f44-a03e-822beef5d5e4","$type":"Bolt.ControlConnection"},{"sourceUnit":{"$ref":"86"},"sourceKey":"exit","destinationUnit":{"$ref":"79"},"destinationKey":"assign","guid":"5e9b2f1a-a5c0-4484-bd6e-cd4f36a717d0","$type":"Bolt.ControlConnection"},{"sourceUnit":{"$ref":"84"},"sourceKey":"trigger","destinationUnit":{"$ref":"86"},"destinationKey":"enter","guid":"c10987b0-7c9c-4ba1-88ce-cc26de0419c4","$type":"Bolt.ControlConnection"},{"sourceUnit":{"$ref":"89"},"sourceKey":"exit","destinationUnit":{"$ref":"71"},"destinationKey":"assign","guid":"479fd986-39d5-4042-8ceb-c40948564279","$type":"Bolt.ControlConnection"},{"sourceUnit":{"$ref":"67"},"sourceKey":"ifNotNull","destinationUnit":{"$ref":"82"},"destinationKey":"enter","guid":"14680c22-9cb4-4c5e-a569-ca4aacfdb9c3","$type":"Bolt.ControlConnection"},{"sourceUnit":{"$ref":"71"},"sourceKey":"assigned","destinationUnit":{"$ref":"45"},"destinationKey":"enter","guid":"49c37777-71da-4b05-96b5-bf377a613e4a","$type":"Bolt.ControlConnection"},{"sourceUnit":{"$ref":"54"},"sourceKey":"assigned","destinationUnit":{"$ref":"34"},"destinationKey":"enter","guid":"266708c2-d497-4809-97d3-8d26804ab39c","$type":"Bolt.ControlConnection"},{"sourceUnit":{"$ref":"11"},"sourceKey":"trigger","destinationUnit":{"$ref":"22"},"destinationKey":"enter","guid":"1c063083-2f98-4ffd-af7c-f56a01215b6c","$type":"Bolt.ControlConnection"},{"sourceUnit":{"$ref":"31"},"sourceKey":"exit","destinationUnit":{"$ref":"13"},"destinationKey":"enter","guid":"80cb2160-946c-42c2-9479-cf5eb4f7b126","$type":"Bolt.ControlConnection"},{"sourceUnit":{"$ref":"34"},"sourceKey":"exit","destinationUnit":{"$ref":"37"},"destinationKey":"enter","guid":"887e7e22-ceab-49ab-be09-1764c75d8162","$type":"Bolt.ControlConnection"},{"sourceUnit":{"$ref":"74"},"sourceKey":"exit","destinationUnit":{"$ref":"54"},"destinationKey":"assign","guid":"6860d07d-5d01-4a3a-89e9-9884b6582978","$type":"Bolt.ControlConnection"},{"sourceUnit":{"$ref":"82"},"sourceKey":"ifFalse","destinationUnit":{"$ref":"74"},"destinationKey":"enter","guid":"eb44850c-4df5-44e0-b8ea-8d3bb98c1f6d","$type":"Bolt.ControlConnection"},{"sourceUnit":{"$ref":"57"},"sourceKey":"assigned","destinationUnit":{"$ref":"31"},"destinationKey":"enter","guid":"d04fad9a-70bd-427a-ad22-c89b16bcc7f1","$type":"Bolt.ControlConnection"},{"sourceUnit":{"$ref":"82"},"sourceKey":"ifTrue","destinationUnit":{"$ref":"89"},"destinationKey":"enter","guid":"13d77b8e-c27c-4983-a5d1-021f7265613c","$type":"Bolt.ControlConnection"},{"sourceUnit":{"$ref":"34"},"sourceKey":"result","destinationUnit":{"$ref":"48"},"destinationKey":"target","guid":"60c5268e-9ace-4c08-9334-f87d6c4f0cee","$type":"Bolt.ValueConnection"},{"sourceUnit":{"$ref":"48"},"sourceKey":"value","destinationUnit":{"$ref":"37"},"destinationKey":"target","guid":"86b96013-22a4-44ca-a93b-a3242da5bf26","$type":"Bolt.ValueConnection"},{"sourceUnit":{"$ref":"40"},"sourceKey":"value","destinationUnit":{"$ref":"28"},"destinationKey":"target","guid":"8d19bd53-3281-43fc-a991-dc197d323637","$type":"Bolt.ValueConnection"},{"sourceUnit":{"$ref":"16"},"sourceKey":"result","destinationUnit":{"$ref":"25"},"destinationKey":"target","guid":"b2efb62f-f524-45b4-9cad-6b92b6e575a5","$type":"Bolt.ValueConnection"},{"sourceUnit":{"$ref":"92"},"sourceKey":"value","destinationUnit":{"$ref":"57"},"destinationKey":"input","guid":"958261f3-642e-4375-88b7-e061d8fcf3d6","$type":"Bolt.ValueConnection"},{"sourceUnit":{"$ref":"74"},"sourceKey":"result","destinationUnit":{"$ref":"54"},"destinationKey":"target","guid":"66c51f14-75ae-4e4c-978e-6a69ef3b6a01","$type":"Bolt.ValueConnection"},{"sourceUnit":{"$ref":"86"},"sourceKey":"result","destinationUnit":{"$ref":"79"},"destinationKey":"target","guid":"9f00dd1c-3c1a-4bfd-9e84-8d2142726924","$type":"Bolt.ValueConnection"},{"sourceUnit":{"$ref":"60"},"sourceKey":"value","destinationUnit":{"$ref":"67"},"destinationKey":"input","guid":"80488f61-2300-4eba-b353-13cdedcffaeb","$type":"Bolt.ValueConnection"},{"sourceUnit":{"$ref":"89"},"sourceKey":"result","destinationUnit":{"$ref":"71"},"destinationKey":"target","guid":"99365e96-03bf-42c6-be6a-59c9e09ff077","$type":"Bolt.ValueConnection"},{"sourceUnit":{"$ref":"62"},"sourceKey":"value","destinationUnit":{"$ref":"71"},"destinationKey":"input","guid":"cd5e9932-bf4e-4a61-9fc0-b9940d822d18","$type":"Bolt.ValueConnection"},{"sourceUnit":{"$ref":"45"},"sourceKey":"result","destinationUnit":{"$ref":"40"},"destinationKey":"target","guid":"8944e742-8be4-47ae-ab3a-67828d679ddd","$type":"Bolt.ValueConnection"},{"sourceUnit":{"$ref":"22"},"sourceKey":"result","destinationUnit":{"$ref":"57"},"destinationKey":"target","guid":"3e38b4a6-9423-4a29-88f3-27772ee9b0a2","$type":"Bolt.ValueConnection"},{"sourceUnit":{"$ref":"77"},"sourceKey":"self","destinationUnit":{"$ref":"43"},"destinationKey":"b","guid":"923179f9-8955-4f98-bc92-8872d1e728e6","$type":"Bolt.ValueConnection"},{"sourceUnit":{"$ref":"43"},"sourceKey":"equal","destinationUnit":{"$ref":"82"},"destinationKey":"condition","guid":"6c66d514-4066-4c08-8ddc-82357af2e519","$type":"Bolt.ValueConnection"},{"sourceUnit":{"$ref":"31"},"sourceKey":"result","destinationUnit":{"$ref":"51"},"destinationKey":"target","guid":"4b8164ad-cccd-4073-b7d5-9c463cd234b1","$type":"Bolt.ValueConnection"},{"sourceUnit":{"$ref":"51"},"sourceKey":"value","destinationUnit":{"$ref":"13"},"destinationKey":"target","guid":"6fa54b87-c282-4fa8-a764-8da30f6aa0cb","$type":"Bolt.ValueConnection"},{"sourceUnit":{"$ref":"65"},"sourceKey":"value","destinationUnit":{"$ref":"43"},"destinationKey":"a","guid":"0d69d279-5798-4e7f-b72c-b873b0ff6829","$type":"Bolt.ValueConnection"},{"sourceUnit":{"$ref":"25"},"sourceKey":"value","destinationUnit":{"$ref":"19"},"destinationKey":"target","guid":"838f973d-6992-4d4f-a28b-464fe5bbd5b1","$type":"Bolt.ValueConnection"},{"position":{"xMin":-661.0,"yMin":-291.0,"xMax":1145.0,"yMax":88.0},"label":"Text
      On Pickup","comment":null,"color":{"r":0.0,"g":0.0,"b":0.0,"a":1.0},"guid":"5fc7cd48-fa32-4a66-bbc5-ce3dbb54f609","$version":"A","$type":"Ludiq.GraphGroup"},{"position":{"xMin":-648.0,"yMin":-551.0,"xMax":797.0,"yMax":-372.0},"label":"Empty
      Text on Exit","comment":null,"color":{"r":0.0,"g":0.0,"b":0.0,"a":1.0},"guid":"56e88226-291d-4ca4-8265-55432cd514eb","$version":"A","$type":"Ludiq.GraphGroup"},{"position":{"xMin":-655.0,"yMin":-853.0,"xMax":786.0,"yMax":-590.0},"label":"Text
      on Enter","comment":null,"color":{"r":0.0,"g":0.0,"b":0.0,"a":1.0},"guid":"64f90901-59da-40bf-a4c5-5c0f1b1bcd95","$version":"A","$type":"Ludiq.GraphGroup"}],"$version":"A"}}'
    _objectReferences:
    - {fileID: 239027752812346424, guid: 9c027e8b47bd31d41ac33c59ec353aae, type: 3}
